{"scenes": [
{
    "Cancel": "Cancel",
    "ID": "GEN",
    "Logout": "Logout",
    "LogoutText": "Are you sure you want to logout?",
    "LogoutTitle": "Logout",
    "Ok": "Ok",
    "ResetText": "Do you wish to reset the sim?",
    "Scenario1": "Scenario 1:",
    "Scenario2": "Scenario 2:",
    "Scenario3": "Scenario 3:",
    "Scenario4": "Scenario 4:",
    "SubTitlePart1": "Sub Title",
    "Tab1Text": "New Feature",
    "Tab2Text": "Consumer Marketing",
    "Tab3Text": "Sales Blueprinting",
    "Tab4Text": "Large Customer Migration",
    "TeamName": "Team Name",
    "TeamNumber": "Team Number",
    "Title": "LTV Scenario Calculator"
}
]}