<?xml version="1.0" encoding="utf-8"?>
<!-- Generator: Adobe Illustrator 15.1.0, SVG Export Plug-In . SVG Version: 6.00 Build 0)  -->
<!DOCTYPE svg PUBLIC "-//W3C//DTD SVG 1.1//EN" "http://www.w3.org/Graphics/SVG/1.1/DTD/svg11.dtd">
<svg version="1.1" id="Layer_1" xmlns="http://www.w3.org/2000/svg" xmlns:xlink="http://www.w3.org/1999/xlink" x="0px" y="0px"
	 width="300.885px" height="792px" viewBox="0 0 300.885 792" enable-background="new 0 0 300.885 792" xml:space="preserve">
<g>
	<path fill="#FFFFFF" d="M184.906,583.904C13.721,724.553,6.943,789.568,6.943,789.568V396.064h287.99
		C291.414,501.941,184.906,583.904,184.906,583.904z"/>
	<path fill="#FFFFFF" d="M184.906,208.095c0,0,106.508,81.964,110.027,187.841H6.943V2.432
		C6.943,2.432,13.721,67.447,184.906,208.095z"/>
</g>
<g>
	<g>
		<g>
			<path d="M180.004,329.482c-21.387,21.387-42.774,42.773-64.161,64.159c-3.194,3.195,1.755,8.144,4.95,4.95
				c21.387-21.386,42.773-42.772,64.16-64.159C188.149,331.237,183.199,326.288,180.004,329.482L180.004,329.482z"/>
		</g>
	</g>
	<g>
		<g>
			<path d="M115.844,398.591c20.394,20.394,40.788,40.787,61.182,61.181c3.194,3.194,8.145-1.755,4.949-4.949
				c-20.394-20.394-40.788-40.787-61.181-61.181C117.599,390.447,112.649,395.396,115.844,398.591L115.844,398.591z"/>
		</g>
	</g>
</g>
</svg>
