<?xml version="1.0" encoding="utf-8"?>
<!-- Generator: Adobe Illustrator 15.1.0, SVG Export Plug-In . SVG Version: 6.00 Build 0)  -->
<!DOCTYPE svg PUBLIC "-//W3C//DTD SVG 1.1//EN" "http://www.w3.org/Graphics/SVG/1.1/DTD/svg11.dtd">
<svg version="1.1" id="Layer_1" xmlns="http://www.w3.org/2000/svg" xmlns:xlink="http://www.w3.org/1999/xlink" x="0px" y="0px"
	 width="935px" height="935px" viewBox="0 0 935 935" enable-background="new 0 0 935 935" xml:space="preserve">
<g id="surface1">
	<path fill="#FFFFFF" d="M857.086,0H264.949c-43.004,0.051-77.859,34.902-77.914,77.91v389.571h31.164V77.911
		c0-25.816,20.934-46.738,46.75-46.738h592.137c25.824,0,46.746,20.922,46.746,46.738v498.645c0,25.816-20.922,46.75-46.746,46.75
		H467.52v31.172h389.566c43.012-0.059,77.867-34.91,77.914-77.922V77.911C934.953,34.903,900.098,0.051,857.086,0z"/>
	<path fill="#FFFFFF" d="M249.363,62.336h31.172v31.16h-31.172V62.336z"/>
	<path fill="#FFFFFF" d="M311.695,62.336h31.164v31.16h-31.164V62.336z"/>
	<path fill="#FFFFFF" d="M374.023,62.336h31.172v31.16h-31.172V62.336z"/>
	<path fill="#FFFFFF" d="M249.363,124.661h623.305v31.172H249.363V124.661z"/>
	<path fill="#FFFFFF" d="M249.363,358.407c0,8.605,6.977,15.574,15.586,15.574h155.82c8.617,0,15.586-6.969,15.586-15.574V202.575
		c0-8.609-6.969-15.578-15.586-15.578h-155.82c-8.609,0-15.586,6.969-15.586,15.578V358.407z M280.535,218.161h124.66v124.66
		h-124.66V218.161z"/>
	<path fill="#FFFFFF" d="M654.516,202.575c0-8.609-6.977-15.578-15.586-15.578H483.105c-8.605,0-15.586,6.969-15.586,15.578v155.832
		c0,8.605,6.98,15.574,15.586,15.574H638.93c8.609,0,15.586-6.969,15.586-15.574V202.575z M623.344,342.821h-124.66v-124.66h124.66
		V342.821z"/>
	<path fill="#FFFFFF" d="M872.668,202.575c0-8.609-6.969-15.578-15.582-15.578H701.258c-8.605,0-15.578,6.969-15.578,15.578v155.832
		c0,8.605,6.973,15.574,15.578,15.574h155.828c8.613,0,15.582-6.969,15.582-15.574V202.575z M841.508,342.821H716.84v-124.66
		h124.668V342.821z"/>
	<path fill="#FFFFFF" d="M249.363,467.481h31.172v-31.164h155.82v-15.586c0-8.605-6.969-15.578-15.586-15.578h-155.82
		c-8.609,0-15.586,6.973-15.586,15.578V467.481z"/>
	<path fill="#FFFFFF" d="M638.93,405.153h-15.586v155.824h-124.66v31.164H638.93c8.609,0,15.586-6.98,15.586-15.586V420.731
		C654.516,412.126,647.539,405.153,638.93,405.153z"/>
	<path fill="#FFFFFF" d="M857.086,405.153H701.258c-8.605,0-15.578,6.973-15.578,15.578v155.824c0,8.605,6.973,15.586,15.578,15.586
		h155.828c8.613,0,15.582-6.98,15.582-15.586V420.731C872.668,412.126,865.699,405.153,857.086,405.153z M841.508,560.978H716.84
		v-124.66h124.668V560.978z"/>
	<path fill="#FFFFFF" d="M3.473,504.47c-2.98,3.68-4.121,8.516-3.117,13.137l62.332,280.488c1.59,7.148,7.949,12.227,15.266,12.203
		H420.77c8.617,0,15.586,6.977,15.586,15.578c0,8.605-6.969,15.586-15.586,15.586H62.375c-25.82,0-46.75,20.926-46.75,46.75
		c0,25.816,20.93,46.75,46.75,46.75c25.824,0,46.75-20.934,46.75-46.75c-0.051-5.332-1.023-10.59-2.863-15.586h223.883
		c-1.84,4.996-2.816,10.254-2.871,15.586c0,25.816,20.934,46.75,46.75,46.75c25.832,0,46.746-20.934,46.746-46.75
		c-0.039-5.332-1.016-10.59-2.859-15.586h2.859c25.824,0,46.75-20.93,46.75-46.75s-20.926-46.738-46.75-46.738h-11.727
		l57.656-259.676l26.035-51.98h8.82c7.594,21.465,29.543,34.336,51.984,30.488c22.438-3.848,38.836-23.309,38.836-46.074
		c0-22.77-16.398-42.223-38.836-46.07c-22.441-3.859-44.391,9.023-51.984,30.492h-18.449c-5.93-0.035-11.371,3.309-14.023,8.609
		l-26.77,53.719H15.625C10.898,498.646,6.434,500.782,3.473,504.47z M62.375,903.798c-8.605,0-15.586-6.98-15.586-15.586
		s6.98-15.586,15.586-15.586c8.609,0,15.578,6.98,15.578,15.586S70.984,903.798,62.375,903.798z M374.023,903.798
		c-8.602,0-15.578-6.98-15.578-15.586s6.977-15.586,15.578-15.586c8.617,0,15.586,6.98,15.586,15.586
		S382.641,903.798,374.023,903.798z M545.434,436.317c8.613,0,15.586,6.977,15.586,15.578c0,8.605-6.973,15.586-15.586,15.586
		c-8.609,0-15.578-6.98-15.578-15.586C529.855,443.294,536.824,436.317,545.434,436.317z M218.199,779.138h-63.168l-3.477-62.336
		h66.645V779.138z M218.199,685.638h-68.367l-3.469-62.332h71.836V685.638z M357.605,529.813h74.91l-13.855,62.328h-64.531
		L357.605,529.813z M352.402,623.306h59.34l-13.859,62.332h-48.945L352.402,623.306z M347.215,716.802h43.758l-13.824,62.336
		h-33.402L347.215,716.802z M249.363,529.813h77.027l-3.457,62.328h-73.57V529.813z M249.363,623.306h71.84l-3.461,62.332h-68.379
		V623.306z M249.363,716.802h66.648l-3.473,62.336h-63.176V716.802z M218.199,529.813v62.328h-73.559l-3.465-62.328H218.199z
		 M123.816,779.138H90.426L76.57,716.802h43.789L123.816,779.138z M118.633,685.638H69.684l-13.855-62.332h59.34L118.633,685.638z
		 M109.965,529.813l3.477,62.328H48.918l-13.859-62.328H109.965z"/>
</g>
</svg>
